<?xml version="1.0" encoding="UTF-8" standalone="no"?>
<svg
   xmlns:osb="http://www.openswatchbook.org/uri/2009/osb"
   xmlns:dc="http://purl.org/dc/elements/1.1/"
   xmlns:cc="http://creativecommons.org/ns#"
   xmlns:rdf="http://www.w3.org/1999/02/22-rdf-syntax-ns#"
   xmlns:svg="http://www.w3.org/2000/svg"
   xmlns="http://www.w3.org/2000/svg"
   xmlns:sodipodi="http://sodipodi.sourceforge.net/DTD/sodipodi-0.dtd"
   xmlns:inkscape="http://www.inkscape.org/namespaces/inkscape"
   width="42"
   height="42"
   viewBox="0 0 11.1125 11.1125"
   version="1.1"
   id="svg8"
   inkscape:export-filename="/home/arp/image.png"
   inkscape:export-xdpi="450"
   inkscape:export-ydpi="450"
   inkscape:version="1.0.2 (e86c870879, 2021-01-15)"
   sodipodi:docname="nakedeb-logo-src.svg">
  <title
     id="title4518">nakeDeb logo</title>
  <defs
     id="defs2">
    <linearGradient
       id="linearGradient6107"
       osb:paint="solid">
      <stop
         style="stop-color:#2e3440;stop-opacity:1;"
         offset="0"
         id="stop6105" />
    </linearGradient>
  </defs>
  <sodipodi:namedview
     id="base"
     pagecolor="#ffffff"
     bordercolor="#666666"
     borderopacity="1.0"
     inkscape:pageopacity="0.0"
     inkscape:pageshadow="2"
     inkscape:zoom="14.210011"
     inkscape:cx="24.340369"
     inkscape:cy="22.357801"
     inkscape:document-units="px"
     inkscape:current-layer="layer1"
     showgrid="true"
     units="px"
     showguides="false"
     inkscape:guide-bbox="true"
     inkscape:window-width="1440"
     inkscape:window-height="882"
     inkscape:window-x="0"
     inkscape:window-y="0"
     inkscape:window-maximized="0"
     inkscape:document-rotation="0"
     inkscape:snap-grids="true"
     inkscape:snap-to-guides="true">
    <inkscape:grid
       type="xygrid"
       id="grid6196" />
    <sodipodi:guide
       position="4.2333333,5.55625"
       orientation="0,1"
       id="guide6198"
       inkscape:locked="false" />
    <sodipodi:guide
       position="5.55625,6.6145833"
       orientation="1,0"
       id="guide6200"
       inkscape:locked="false" />
  </sodipodi:namedview>
  <metadata
     id="metadata5">
    <rdf:RDF>
      <cc:Work
         rdf:about="">
        <dc:format>image/svg+xml</dc:format>
        <dc:type
           rdf:resource="http://purl.org/dc/dcmitype/StillImage" />
        <dc:title>nakeDeb logo</dc:title>
        <dc:date>december 2020</dc:date>
        <dc:creator>
          <cc:Agent>
            <dc:title>nakedev</dc:title>
          </cc:Agent>
        </dc:creator>
        <dc:rights>
          <cc:Agent>
            <dc:title>cc0</dc:title>
          </cc:Agent>
        </dc:rights>
        <dc:subject>
          <rdf:Bag>
            <rdf:li>nakedeb</rdf:li>
            <rdf:li>debian</rdf:li>
            <rdf:li>fluxbox</rdf:li>
            <rdf:li>i3wm</rdf:li>
            <rdf:li>minimal</rdf:li>
          </rdf:Bag>
        </dc:subject>
        <dc:description>logo de la distribution nakeDeb https://nakedeb.arpinux.org</dc:description>
        <cc:license
           rdf:resource="http://creativecommons.org/publicdomain/zero/1.0/" />
      </cc:Work>
      <cc:License
         rdf:about="http://creativecommons.org/publicdomain/zero/1.0/">
        <cc:permits
           rdf:resource="http://creativecommons.org/ns#Reproduction" />
        <cc:permits
           rdf:resource="http://creativecommons.org/ns#Distribution" />
        <cc:permits
           rdf:resource="http://creativecommons.org/ns#DerivativeWorks" />
      </cc:License>
    </rdf:RDF>
  </metadata>
  <g
     inkscape:label="Calque 1"
     inkscape:groupmode="layer"
     id="layer1"
     transform="translate(0,-285.88748)">
    <text
       xml:space="preserve"
       style="font-style:normal;font-variant:normal;font-weight:normal;font-stretch:normal;font-size:7.76111px;line-height:1.25;font-family:monospace;-inkscape-font-specification:monospace;letter-spacing:0px;word-spacing:0px;fill:#000000;fill-opacity:1;stroke:none;stroke-width:0.264583"
       x="2.1024926"
       y="291.8028"
       id="text6158" />
    <text
       xml:space="preserve"
       style="font-style:normal;font-variant:normal;font-weight:normal;font-stretch:normal;font-size:7.76111px;line-height:1.25;font-family:monospace;-inkscape-font-specification:monospace;letter-spacing:0px;word-spacing:0px;fill:#d8dee9;fill-opacity:1;stroke:none;stroke-width:0.264583"
       x="0.63783485"
       y="290.99963"
       id="text6204" />
    <rect
       style="opacity:1;fill:#2e3440;fill-opacity:1;stroke:#d8dee9;stroke-width:0.34395832;stroke-linecap:round;stroke-linejoin:round;stroke-miterlimit:4;stroke-dasharray:none;stroke-opacity:1;paint-order:normal"
       id="rect851"
       width="10.583333"
       height="10.583327"
       x="0.26458332"
       y="286.15207"
       ry="0.52916092"
       rx="5.2916665" />
    <g
       id="g3255"
       transform="rotate(35.661939,5.8359521,290.51284)">
      <ellipse
         style="fill:#2e3440;fill-opacity:1;stroke:#d8dee9;stroke-width:1.18889;stroke-linecap:round;stroke-linejoin:miter;stroke-miterlimit:4;stroke-dasharray:none;stroke-opacity:1;paint-order:normal"
         id="ellipse2389"
         ry="3.3573601"
         rx="3.357362"
         cy="249.14554"
         cx="-150.81465"
         transform="rotate(-32.368623)" />
      <ellipse
         style="fill:#d8dee9;fill-opacity:1;stroke:#2e3440;stroke-width:1.18889;stroke-linecap:round;stroke-linejoin:miter;stroke-miterlimit:4;stroke-dasharray:none;stroke-opacity:1;paint-order:normal"
         id="ellipse2383"
         ry="3.3422854"
         rx="3.3422873"
         cy="249.2123"
         cx="-151.94455"
         transform="rotate(-32.368623)" />
      <ellipse
         style="fill:#d8dee9;fill-opacity:1;stroke:#2e3440;stroke-width:0.596738;stroke-linecap:round;stroke-linejoin:miter;stroke-miterlimit:4;stroke-dasharray:none;stroke-opacity:1;paint-order:normal"
         id="ellipse2397"
         ry="1.6775899"
         rx="1.6775908"
         cy="251.83177"
         cx="-152.785"
         transform="rotate(-32.368623)" />
    </g>
  </g>
</svg>
